PM566 Midterm Project
…
summary(crime$`Vict Age`)

##    Min. 1st Qu.  Median    Mean 3rd Qu.    Max. 
##    0.00   12.00   31.00   30.06   46.00  120.00

Then, we found that the crimes happened at 77th Street the most, it draws attention and I decided to build a new dataset to figure out the association between the location and victims age, sex and the time of crimes happens. And the victims age is kind of implausible since min=0, max=120, well deal with the missing value and this kind of implausible values for the following steps.

crime %>%
  count(`AREA NAME`, sort = TRUE)

## # A tibble: 21 x 2
##    `AREA NAME`     n
##    <chr>       <int>
##  1 77th Street  9744
##  2 Central      8765
##  3 Pacific      8366
##  4 Southwest    8363
##  5 Southeast    8073
##  6 Newton       7617
##  7 Hollywood    7440
##  8 N Hollywood  7423
##  9 Olympic      7177
## 10 Wilshire     6890
## #  with 11 more rows
…
c77%>%
  count(`Crm Cd Desc`, sort = TRUE)

## # A tibble: 85 x 2
##    `Crm Cd Desc`                                               n
##    <chr>                                                   <int>
##  1 ASSAULT WITH DEADLY WEAPON, AGGRAVATED ASSAULT           1015
##  2 INTIMATE PARTNER - SIMPLE ASSAULT                         761
##  3 BATTERY - SIMPLE ASSAULT                                  682
##  4 ROBBERY                                                   525
##  5 VANDALISM - FELONY ($400 & OVER, ALL CHURCH VANDALISMS)   471
##  6 BURGLARY FROM VEHICLE                                     369
##  7 VANDALISM - MISDEAMEANOR ($399 OR UNDER)                  354
##  8 INTIMATE PARTNER - AGGRAVATED ASSAULT                     276
##  9 CRIMINAL THREATS - NO WEAPON DISPLAYED                    253
## 10 THEFT PLAIN - PETTY ($950 & UNDER)                        248
## #  with 75 more rows
…
